impacto del agua y el tabaquismo en el cancer de colon
…
## Rows: 72 Columns: 30
## ── Column specification ────────────────────────────────────────────────────────
## Delimiter: ","
## chr (11): Mes, Punto de Muestreo, Color Max: 15 Ud: pl/mg, Cloro Libre, Turb...
## dbl (11): Id, Año, Olor, Sabor, Conductividad, Bacterías Coliformes, Enteroc...
## num  (8): pH, Temperatura, Dureza, Nitratos, Cloruros, Sodio, Calcio, Magnesio
## 
## ℹ Use `spec()` to retrieve the full column specification for this data.
## ℹ Specify the column types or set `show_col_types = FALSE` to quiet this message.

Agua_gijon

## # A tibble: 72 × 30
##       Id   Año Mes       `Punto de Muestreo`  Color Max: 15 Ud: pl…¹  Olor Sabor
##    <dbl> <dbl> <chr>     <chr>                <chr>                  <dbl> <dbl>
##  1    80  2024 Julio     Salida de los depós… 2                          1     1
##  2    79  2024 Junio     Salida de los depós… 0                          1     1
##  3    78  2024 Mayo      Salida de los depós… 1                          1     1
##  4    77  2024 Abril     Salida de los depós… 1                          1     1
##  5    76  2024 Marzo     Salida de los depós… 4                          1     1
##  6    75  2024 Febrero   Salida de los depós… 2                          1     1
##  7    74  2024 Enero     Salida de los depós… 3                          1     1
##  8    73  2023 Diciembre Salida de los depós… 8                          1     1
##  9    72  2023 Noviembre Salida de los depós… 7                          1     1
## 10    71  2023 octubre   Salida de los depós… 2                          1     1
## # ℹ 62 more rows
## # ℹ abbreviated name: ¹​`Color Max: 15 Ud: pl/mg`
## # ℹ 23 more variables: `Cloro Libre` <chr>, Turbidez <chr>, pH <dbl>,
## #   Conductividad <dbl>, Temperatura <dbl>, Dureza <dbl>, Nitratos <dbl>,
## #   Nitritos <chr>, Amonio <chr>, Cloruros <dbl>, Fluor <chr>, Sodio <dbl>,
## #   Aluminio <chr>, Trihalometanos <chr>, Oxidabilidad <chr>,
## #   `Bacterías Coliformes` <dbl>, Enterococos <dbl>, …
…
